{"page":1,"per_page":6,"total":20,"total_pages":4,"data":[{"startDate":"2014-05-12T07:00:00.000Z","mediaurl":"http://crm.rd.simpleviewinc.com/images/calendar/09a36d6c-1f34-4ab8-b9da-53226b89d2b7.jpg","recurrence":"Recurring weekly on Monday, Tuesday, Wednesday","description":"A test Event dur","category":{"catname":"family Fun"},"title":"C Test Event","recid":"15"},{"startDate":"2014-10-25T07:00:00.000Z","mediaurl":"http://crm.rd.simpleviewinc.com/images/calendar/09a36d6c-1f34-4ab8-b9da-53226b89d2b7.jpg","recurrence":"Recurring every 3 weeks on Sunday, Saturday","description":"Marquee tag in the title","category":{"catname":"One item only event"},"title":"hello","recid":"42"},{"startDate":"2015-01-01T07:00:00.000Z","mediaurl":"http://crm.rd.simpleviewinc.com/images/calendar/7ad03e04-bb83-4698-8b8a-c626283f1c2c.jpg","recurrence":"Recurring every 3 weeks on Sunday, Saturday","description":"Bacon ipsum dolor sit amet beef ribs pork tenderloin, chicken cow meatloaf shoulder drumstick flank. Turducken short loin ground round meatball andouille venison. Swine corned beef turducken beef ribs meatball biltong pork tail. Ball tip pork belly landjaeger, chicken leberkas bresaola pastrami. Sausage ground round pork belly, andouille frankfurter shankle filet mignon. Brisket jerky tongue fatback t-bone meatloaf. Tongue fatback ham hock pancetta meatloaf turkey short loin pastrami andouille venison chicken. Shankle jowl turducken bresaola, chuck turkey filet mignon bacon spare ribs ribeye fatback pancetta tail shoulder tri-tip. Pork belly ham hock flank fatback, pork chop frankfurter pork loin beef sausage. Pork loin cow boudin, hamburger chicken filet mignon prosciutto. T-bone sirloin flank ball tip. Porchetta beef ball tip sausage ham hock meatloaf pancetta flank shankle pastrami spare ribs short ribs pork loin. Leberkas drumstick jowl pork loin. Meatball doner jowl, corned beef tenderloin kielbasa short loin andouille. Ribeye pork belly turducken, turkey hamburger leberkas capicola beef. Jowl short loin kevin, short ribs tenderloin salami shankle shank prosciutto pork chop shoulder filet mignon swine. Short ribs turkey jerky fatback jowl ham kielbasa bresaola strip steak meatball. Leberkas flank beef tail turducken, ground round jowl doner shankle ribeye filet mignon sirloin. Leberkas beef ribs biltong tri-tip andouille strip steak, corned beef porchetta ribeye bacon short ribs. Jowl doner tri-tip, bacon fatback chicken tongue jerky chuck cow. Ham hock flank shoulder ribeye, filet mignon pork chop ball tip. Sausage andouille salami kevin jerky, biltong rump capicola ground round. Ribeye pork chop flank, turkey meatloaf kevin biltong leberkas filet mignon jerky ham. Beef brisket boudin spare ribs, venison pig hamburger ribeye pork belly biltong frankfurter ham hock. Tenderloin corned beef meatball frankfurter ham rump boudin drumstick bresaola salami shoulder prosciutto pork belly. Landjaeger chuck jowl kevin.","category":{"catname":"family Fun"},"title":"National Day of Bacon","recid":"43"},{"startDate":"2016-05-19T07:00:00.000Z","mediaurl":"http://crm.rd.simpleviewinc.com/images/calendar/7ad03e04-bb83-4698-8b8a-c626283f1c2c.jpg","recurrence":"Recurring every 3 weeks on Sunday, Saturday","description":"Never expire test.  Never expire = Yes","category":{"catname":"pizza"},"title":"SKR Never Expire = true test","recid":"58"},{"startDate":"2014-05-08T07:00:00.000Z","mediaurl":"http://crm.rd.simpleviewinc.com/images/calendar/7ad03e04-bb83-4698-8b8a-c626283f1c2c.jpg","recurrence":"Recurring every 3 weeks on Sunday, Saturday","description":"this is a description","category":{"catname":"family Fun"},"title":"All fields with inputs","recid":"61"},{"startDate":"2014-05-08T07:00:00.000Z","mediaurl":"http://crm.rd.simpleviewinc.com/images/calendar/7ad03e04-bb83-4698-8b8a-c626283f1c2c.jpg","recurrence":"Recurring every 3 weeks on Sunday, Saturday","description":"this is a description","category":{"catname":"family Fun"},"title":"All fields with inputs","recid":"62"}]}