{"page":1,"per_page":6,"total":20,"total_pages":4,"data":[{"title":"Testing Coupon with Grey Box","description":"offer text","redeemstart":"2009-07-23T07:00:00.000Z","category":{"catname":"BostonUSA Specials"},"recid":"8","mediaurl":"http://crm.rd.simpleviewinc.com/images/listings/original_Philadelphia0.JPG"},{"title":"Testing Coupon With Listing","description":"<br mce_bogus=\"1\">","redeemstart":"2009-07-23T07:00:00.000Z","category":{"catname":"BostonUSA Specials"},"recid":"74","mediaurl":"http://crm.rd.simpleviewinc.com/images/listings/original_Philadelphia0.JPG"},{"title":"What to do Coupon Kate","description":"This is the coupon offer text 8pt bold white text in green","redeemstart":"2009-07-23T07:00:00.000Z","category":{"catname":"What to Do"},"recid":"96","mediaurl":"http://crm.rd.simpleviewinc.com/images/listings/original_Philadelphia0.JPG"},{"title":"Kate's 2nd Coupon","description":"This is the 2nd coupon offer! in book antiqua pizza","redeemstart":"2009-07-23T07:00:00.000Z","category":{"categoryid":1,"catname":"BostonUSA Specials"},"recid":"97","mediaurl":"http://crm.rd.simpleviewinc.com/images/listings/original_Philadelphia0.JPG"},{"title":"Free Drinks with a purchase of Redesign","description":"Free adult bevarge with a purchase of a redesign","redeemstart":"2013-04-28T07:00:00.000Z","category":{"catname":"BostonUSA Specials"},"recid":"112","mediaurl":"http://crm.rd.simpleviewinc.com/images/listings/paradise0.jpg"},{"title":"Coupon #1","description":"Updated","category":{"catname":"BostonUSA Specials"},"recid":"120","mediaurl":"http://crm.rd.simpleviewinc.com/images/listings/original_img_1_Renderings-Amenity-Renderings-Overview_0000160.jpg"}]}